{
   "device":{
      "name":"minion",
      "type":"Edison",
      "sensor":{
         "potentiometer":{
            "min":0,
            "max":90,
            "unit":1
         },
         "button":{
            "min":0,
            "max":1,
            "unit":1
         }
      },
      "actuator":{
         "led":{
            "min":0,
            "max":1,
            "unit":1
         }
      }
   }
}
